{ "photos": { "page": 1, "pages": 67, "perpage": 15, "total": "1000", 
    "photo": [
      { "id": "13056557675", "owner": "94803936@N02", "secret": "488ba45a6b", "server": "2469", "farm": 3, "title": "P1010909", "ispublic": 1, "isfriend": 0, "isfamily": 0, "url_m": "https:\/\/farm3.staticflickr.com\/2469\/13056557675_488ba45a6b.jpg", "height_m": "281", "width_m": "500" },
      { "id": "13056558435", "owner": "69107593@N08", "secret": "5772ac3dc3", "server": "2390", "farm": 3, "title": "DSC_0094", "ispublic": 1, "isfriend": 0, "isfamily": 0, "url_m": "https:\/\/farm3.staticflickr.com\/2390\/13056558435_5772ac3dc3.jpg", "height_m": "375", "width_m": "500" },
      { "id": "13056559065", "owner": "96559989@N02", "secret": "6454732127", "server": "7414", "farm": 8, "title": "", "ispublic": 1, "isfriend": 0, "isfamily": 0, "url_m": "https:\/\/farm8.staticflickr.com\/7414\/13056559065_6454732127.jpg", "height_m": "146", "width_m": "500" },
      { "id": "13056559205", "owner": "98979659@N04", "secret": "9b3fe9fbc7", "server": "3198", "farm": 4, "title": "phpUkS8Dn", "ispublic": 1, "isfriend": 0, "isfamily": 0, "url_m": "https:\/\/farm4.staticflickr.com\/3198\/13056559205_9b3fe9fbc7.jpg", "height_m": "500", "width_m": "375" },
      { "id": "13056559295", "owner": "74232170@N08", "secret": "f96f1d764c", "server": "7362", "farm": 8, "title": "Gallafest Viby Friskole 2014", "ispublic": 1, "isfriend": 0, "isfamily": 0, "url_m": "https:\/\/farm8.staticflickr.com\/7362\/13056559295_f96f1d764c.jpg", "height_m": "281", "width_m": "500" },
      { "id": "13056559445", "owner": "36306944@N05", "secret": "8d1e01df60", "server": "2165", "farm": 3, "title": "IMG_3119.JPG", "ispublic": 1, "isfriend": 0, "isfamily": 0, "url_m": "https:\/\/farm3.staticflickr.com\/2165\/13056559445_8d1e01df60.jpg", "height_m": "333", "width_m": "500" },
      { "id": "13056684413", "owner": "30137333@N08", "secret": "eb0dc1074b", "server": "7374", "farm": 8, "title": "Dia 9", "ispublic": 1, "isfriend": 0, "isfamily": 0, "url_m": "https:\/\/farm8.staticflickr.com\/7374\/13056684413_eb0dc1074b.jpg", "height_m": "333", "width_m": "500" },
      { "id": "13056685213", "owner": "118954225@N05", "secret": "c42ede0bdc", "server": "3462", "farm": 4, "title": "Photo 1", "ispublic": 1, "isfriend": 0, "isfamily": 0, "url_m": "https:\/\/farm4.staticflickr.com\/3462\/13056685213_c42ede0bdc.jpg", "height_m": "336", "width_m": "500" },
      { "id": "13056685293", "owner": "115543445@N05", "secret": "00dd42f7f4", "server": "7364", "farm": 8, "title": "", "ispublic": 1, "isfriend": 0, "isfamily": 0, "url_m": "https:\/\/farm8.staticflickr.com\/7364\/13056685293_00dd42f7f4.jpg", "height_m": "375", "width_m": "500" },
      { "id": "13056871494", "owner": "61385950@N06", "secret": "739def41a8", "server": "3239", "farm": 4, "title": "AA5Q7218_03-08-2014.jpg", "ispublic": 1, "isfriend": 0, "isfamily": 0, "url_m": "https:\/\/farm4.staticflickr.com\/3239\/13056871494_739def41a8.jpg", "height_m": "333", "width_m": "500" },
      { "id": "13056873214", "owner": "8916397@N03", "secret": "954bb511c2", "server": "3062", "farm": 4, "title": "Cleveland Wheelers Hilly 21 TT", "ispublic": 1, "isfriend": 0, "isfamily": 0, "url_m": "https:\/\/farm4.staticflickr.com\/3062\/13056873214_954bb511c2.jpg", "height_m": "500", "width_m": "333" },
      { "id": "13056874314", "owner": "26923376@N04", "secret": "8690a82294", "server": "2674", "farm": 3, "title": "", "ispublic": 1, "isfriend": 0, "isfamily": 0, "url_m": "https:\/\/farm3.staticflickr.com\/2674\/13056874314_8690a82294.jpg", "height_m": "500", "width_m": "283" },
      { "id": "13056874374", "owner": "99441555@N05", "secret": "919cb0dc8b", "server": "3390", "farm": 4, "title": "#LOSTDOG #METAIRIE #CA POWER & ESPLANDE 619-328-7135", "ispublic": 1, "isfriend": 0, "isfamily": 0, "url_m": "https:\/\/farm4.staticflickr.com\/3390\/13056874374_919cb0dc8b.jpg", "height_m": "500", "width_m": "500" },
      { "id": "13056874864", "owner": "112778973@N07", "secret": "ea0323298d", "server": "3139", "farm": 4, "title": "Timarus progress over the last 2 hours!!!", "ispublic": 1, "isfriend": 0, "isfamily": 0, "url_m": "https:\/\/farm4.staticflickr.com\/3139\/13056874864_ea0323298d.jpg", "height_m": "282", "width_m": "500" },
      { "id": "13056874894", "owner": "22331386@N04", "secret": "ca2a85f34c", "server": "3628", "farm": 4, "title": "A featured submission by Instagram's @asterixorobelix, to the #JJ daily forum. Our theme today is \"Week's Best\" and we are submitting images, on Instagram, using the #jj_forum_0809 tag.", "ispublic": 1, "isfriend": 0, "isfamily": 0, "url_m": "https:\/\/farm4.staticflickr.com\/3628\/13056874894_ca2a85f34c.jpg", "height_m": "500", "width_m": "500" }
    ] }, "stat": "ok" }